{
  "type": "service_account",
  "project_id": "eager-97501",
  "private_key_id": "266b92f688fa76be4e7caedfc6d2c6ba1dac51f4",
  "private_key": "-----BEGIN PRIVATE KEY-----\nMIIEvAIBADANBgkqhkiG9w0BAQEFAASCBKYwggSiAgEAAoIBAQCgILqJqG+N2yCn\nXMKsZqi1ciFMrsDHg1Sf3jRvkUpXKmPh3bx1hFiDWUPAsASPyGE9aTEbDxiafdm8\nb1V+70XFqOySgyLR1Ikb8z8Vyakedfm0mi7/mNwfmTzVtRowb17ecGRH4kKRjxWY\nJVTkaakv4734Xn0x2nDitoNGnBRT8vxAAl4/eGZYy0Fus31SWKpnp322FaKqpadZ\n9d4PyDgCTzkW7x1g8DhgJrswIMStIK3dJ9G04oqhIOhFpuTchFiMxl6tUffRd+hk\nzs0JcDs2W1ng8HcCXsdIxJVHeajP5jMhulcr7a3yDuxeo8IqyqoqjLyek1K3GeyK\nAzE1IDVJAgMBAAECggEAAWdYC0XhOHafyifLgxRhTTnjZdcwVG9nygD6J7I32xzB\nhGTbtpIC7p/VMra4S4RfqdimuAyBVDVfN8IoFzVEwM9Sx5QDtaAt1YNj3a6HX398\nQWOKnu35nANNX7g3Mw5+3+dPUbv/hmQhNdS58kik1YkjDK7TXSEDlVExRGiw2u2G\nUA6otG1QFJOaTTioV8tGfa/6TfBAN7gBBkWlxlAeNfKWx+Mt9MjFN7Lcqu2Ydzr9\nX4od9sjwDdoVloOVNYbEHeRg3guAneBc+oODdX1gsp+pO5QCGG5BCkZJKwh9amwJ\nYP3W8YDfSeSmxUhQbc5KwmbqXB2gDPwG3wDm4zrSgQKBgQDTAYVvaeYp0JonzD6J\nv0c5kuMn22ZO4qfiyu1268nAQQfI87cim9OnOYKYnYPB8zTE6X7uaK8xHQqyuoBb\nVPPMTh5Faqv+u4tHB0r0a7OH7ylz7HV1lRgIljgZGKkJg3GGM2MuKZvVOOaVOfKs\nAH1QSrdR+b7HygKIqbAxIYOgoQKBgQDCRdpkqI6rF19GRgMSHrZpDLRMFpgWFBdI\nHKiTt/uPkMwgYoMiON4udpd+rwPFFmeE5oTK1USTwtr4c64f31wgHXYTR2KdWFQT\nRa2+xQXrM22sXYkwBRJmO21RfEefHXc3DlOf1SxJHsg9U+NYgcPaWEq3fy7tIhVz\nA2fE+axLqQKBgE09Q1ETXNN1rthepY3a3QGwSUKvx3Wc9oPIcMCVc1bS9zySKjma\n/RE7thiToEWA95IVPweafnbmAKKILrBAGrZw6hfTAn7OvB8WBlQOkLtzyqLKrfyK\nxS9vfb2CD26SFR5g9S9Sv95/Y7jAa5qW20hm8VAqsbGEuwS3yO1TLVHBAoGAVnmp\ngOzWtKmuqyU28LXjFFenWcck448F3f+Dul1HCNy3QCMZo/4USDJZtPZKg0w5wBqs\nOW09HVi7B6TWeTF/XHxAtswrxUYwBnQZprUksVEvHG52Rn27du409vSPHPCMxGEI\nMDk/gTzGfSX+KMN6XpK2j395b+ygB5YYdsF8RCECgYAIFyBEP0NXTshkjqvFddpQ\nFajoarvjahSJxTvN71yYdKRNDczXYTuDNJW/JuhIsuchveKiklLHs85yS4ODICK0\nyNUp1nurYbyq3FOXRGCFgpqZV7KXZnjaJAoe16Wuelot944r3hYPQ9ehztN0Yzea\niqssxVlqYfP1CFIZQJcu/Q==\n-----END PRIVATE KEY-----\n",
  "client_email": "eager-701@eager-97501.iam.gserviceaccount.com",
  "client_id": "113960549194263932308",
  "auth_uri": "https://accounts.google.com/o/oauth2/auth",
  "token_uri": "https://oauth2.googleapis.com/token",
  "auth_provider_x509_cert_url": "https://www.googleapis.com/oauth2/v1/certs",
  "client_x509_cert_url": "https://www.googleapis.com/robot/v1/metadata/x509/eager-701%40eager-97501.iam.gserviceaccount.com"
}
